…
``` r
data_filter |> collect()
```

    # A tibble: 24 × 2
        time trafictime
       <int>      <int>
     1    18    3305646
     2    23    3305086
     3    16    3304767
     4    22    3304743
     5    19    3303518
     6    21    3303328
     7    17    3301627
     8    20    3300709
     9    13     124857
    10     0     124851
    # ℹ 14 more rows
…
