…
``` r
data_filter |> collect()
```

    # A tibble: 24 × 2
        time trafictime
       <int>      <int>
     1    18    3305646
     2    23    3305086
     3    16    3304767
     4    22    3304743
     5    19    3303518
     6    21    3303328
     7    17    3301627
     8    20    3300709
     9    13     124857
    10     0     124851
    # ℹ 14 more rows
…
``` r
data_last |> collect()
```

    # A tibble: 999 × 2
       src                sum
       <chr>            <int>
     1 12.33.28.63   46319321
     2 12.54.40.45   63721890
     3 12.33.52.61   31928340
     4 14.33.97.28   30752007
     5 13.39.115.125 33555070
     6 14.45.90.51   47684508
     7 12.33.36.105  64538350
     8 12.34.55.109  52186905
     9 12.48.58.57   51044046
    10 13.35.63.115  34558696
    # ℹ 989 more rows
…
``` r
ipaddr1 |> collect()
```

    # A tibble: 57,913,813 × 3
       src           bytes  port
     * <chr>         <int> <int>
     1 13.43.52.51   57354    40
     2 14.33.30.103  20979   115
     3 12.46.104.126  1500   123
     4 12.43.98.93     979    79
     5 14.32.60.107   1036    72
     6 13.48.126.55   1500   123
     7 14.51.37.21    1500   123
     8 14.49.44.92    1152    22
     9 14.53.76.24    5775   118
    10 14.37.108.54   1086    94
    # ℹ 57,913,803 more rows
…
